{
  "count": 1118,
  "next": "http://localhost:9090/api/v2/pokemon?offset=20&limit=10",
  "previous": "http://localhost:9090/api/v2/pokemon?offset=0&limit=10",
  "results": [
    {
      "name": "metapod",
      "url": "http://localhost:9090/api/v2/pokemon/11/"
    },
    {
      "name": "butterfree",
      "url": "http://localhost:9090/api/v2/pokemon/12/"
    },
    {
      "name": "weedle",
      "url": "http://localhost:9090/api/v2/pokemon/13/"
    },
    {
      "name": "kakuna",
      "url": "http://localhost:9090/api/v2/pokemon/14/"
    },
    {
      "name": "beedrill",
      "url": "http://localhost:9090/api/v2/pokemon/15/"
    },
    {
      "name": "pidgey",
      "url": "http://localhost:9090/api/v2/pokemon/16/"
    },
    {
      "name": "pidgeotto",
      "url": "http://localhost:9090/api/v2/pokemon/17/"
    },
    {
      "name": "pidgeot",
      "url": "http://localhost:9090/api/v2/pokemon/18/"
    },
    {
      "name": "rattata",
      "url": "http://localhost:9090/api/v2/pokemon/19/"
    },
    {
      "name": "raticate",
      "url": "http://localhost:9090/api/v2/pokemon/20/"
    }
  ]
}
